iconId_name	effect_descr	count	rate
Angel Potion	Heal 100.0%	1	=RC[-1]/SUM(C[-1]:C[-1])
Demon Potion	Energy +300, Heal 50.0%	1	=RC[-1]/SUM(C[-1]:C[-1])
Mysterious Milk	Heal 20.0%	6	=RC[-1]/SUM(C[-1]:C[-1])
Crit Potion	Crit +2.0%	4	=RC[-1]/SUM(C[-1]:C[-1])
Power Potion	Attack +1.5%	4	=RC[-1]/SUM(C[-1]:C[-1])
Crit Damage	Crit Damage +1.0%	4	=RC[-1]/SUM(C[-1]:C[-1])
