id	weight	rate	time	reward_1_num	reward_2_num	upCost
1	6000	=RC[-1]/SUM(C[-1]:C[-1])	10	150000	65	10
2	3000	=RC[-1]/SUM(C[-1]:C[-1])	10	180000	70	20
3	1000	=RC[-1]/SUM(C[-1]:C[-1])	11	220000	80	30
4	0	=RC[-1]/SUM(C[-1]:C[-1])	11	260000	100	60
5	0	=RC[-1]/SUM(C[-1]:C[-1])	12	300000	130	100
6	0	=RC[-1]/SUM(C[-1]:C[-1])	12	350000	180	0
