item_name	item_uiid	item_num	cost_type_lua_name	cost_count	cost_per_item	limitNumb	ratio	rank
Spirit	T1XX-10	500000	Gold	1000000	=RC[-1]/RC[-3]	1		30060
Spirit	T1XX-10	20000000	Gold	30000000	=RC[-1]/RC[-3]	1		30070
Hero Promotion Stone	T1XX-11	500	Gold	1000000	=RC[-1]/RC[-3]	1		30020
Hero Promotion Stone	T1XX-11	500	Gems	80	=RC[-1]/RC[-3]	1		30030
Hero Promotion Stone	T1XX-11	1000	Gems	150	=RC[-1]/RC[-3]	1		30040
Hero Promotion Stone	T1XX-11	2000	Gems	270	=RC[-1]/RC[-3]	1		30050
Magic Dust	T1XX-15	300	Gems	60	=RC[-1]/RC[-3]	1		40020
Magic Dust	T1XX-15	3000	Gems	500	=RC[-1]/RC[-3]	1		40030
Magic Dust	T1XX-15	10000	Gems	1500	=RC[-1]/RC[-3]	1		40040
Basic Summon Scroll	T1XX-12000	5	Gold	500000	=RC[-1]/RC[-3]	1		40010
Basic Summon Scroll	T1XX-12000	1	Gems	10	=RC[-1]/RC[-3]	1		40000
Heroic Summon Scroll	T1XX-12003	1	Gems	150	=RC[-1]/RC[-3]	1		10000
Heroic Summon Scroll	T1XX-12003	8	Gems	1000	=RC[-1]/RC[-3]	1		10010
Prophet's  Blessing	T1XX-20	200	Gems	600	=RC[-1]/RC[-3]	1		10050
Prophet Orb	T1XX-21	1	Gems	500	=RC[-1]/RC[-3]	1		10040
Arena Ticket	T1XX-12001	5	Gold	300000	=RC[-1]/RC[-3]	1		10060
Arena Ticket	T1XX-12001	10	Gems	120	=RC[-1]/RC[-3]	1		10070
Wishing Coin	T1XX-12002	8	Gems	240	=RC[-1]/RC[-3]	1		10020
Super Wishing Coin	T1XX-58	2	Gems	500	=RC[-1]/RC[-3]	1		10030
3* Hero Shard	T1XX-40003	20	Gems	20	=RC[-1]/RC[-3]	5		20050
3* Chain Hammer	T4F1-3101	1	Gold	300000	=RC[-1]/RC[-3]	1	0.045	20030
3* Poison Tongue	T4F1-3102	1	Gold	300000	=RC[-1]/RC[-3]	1	0.045	20030
3* Shirley	T4F1-3103	1	Gold	300000	=RC[-1]/RC[-3]	1	0.045	20030
3* Dark Priest	T4F1-3104	1	Gold	300000	=RC[-1]/RC[-3]	1	0.045	20030
3* Ice Troll	T4F1-3105	1	Gold	300000	=RC[-1]/RC[-3]	1	0.045	20030
3* Reggie	T4F2-3201	1	Gold	300000	=RC[-1]/RC[-3]	1	0.045	20030
3* Carver	T4F2-3202	1	Gold	300000	=RC[-1]/RC[-3]	1	0.045	20030
3* Tara's Servant	T4F2-3203	1	Gold	300000	=RC[-1]/RC[-3]	1	0.045	20030
3* Fire Fist	T4F2-3204	1	Gold	300000	=RC[-1]/RC[-3]	1	0.045	20030
3* MK-05	T4F2-3205	1	Gold	300000	=RC[-1]/RC[-3]	1	0.045	20030
3* Abyss Guard	T4F3-3301	1	Gold	300000	=RC[-1]/RC[-3]	1	0.045	20030
3* Wild Beast	T4F3-3302	1	Gold	300000	=RC[-1]/RC[-3]	1	0.045	20030
3* Succube	T4F3-3303	1	Gold	300000	=RC[-1]/RC[-3]	1	0.045	20030
3* Flaming Lips	T4F3-3304	1	Gold	300000	=RC[-1]/RC[-3]	1	0.045	20030
3* Mirko	T4F3-3305	1	Gold	300000	=RC[-1]/RC[-3]	1	0.045	20030
3* Sybil	T4F4-3401	1	Gold	300000	=RC[-1]/RC[-3]	1	0.045	20030
3* Undomiel	T4F4-3402	1	Gold	300000	=RC[-1]/RC[-3]	1	0.045	20030
3* Blue Shaman	T4F4-3403	1	Gold	300000	=RC[-1]/RC[-3]	1	0.045	20030
3* Frey	T4F4-3404	1	Gold	300000	=RC[-1]/RC[-3]	1	0.045	20030
3* Forests Captain	T4F4-3405	1	Gold	300000	=RC[-1]/RC[-3]	1	0.045	20030
3* Ghost of Aspen	T4F5-3501	1	Gold	300000	=RC[-1]/RC[-3]	1	0.05	20030
3* Holy Kid	T4F6-3601	1	Gold	300000	=RC[-1]/RC[-3]	1	0.05	20030
4* Hero Shard	T1XX-40001	30	Gold	1500000	=RC[-1]/RC[-3]	1		20040
4* Shadow Hero Shard	T1F1-40021	30	Gems	120	=RC[-1]/RC[-3]	2		20060
4* Fortress Hero Shard	T1F2-40022	30	Gems	120	=RC[-1]/RC[-3]	2		20070
4* Abyss Hero Shard	T1F3-40023	30	Gems	120	=RC[-1]/RC[-3]	2		30000
4* Forest Hero Shard	T1F4-40024	30	Gems	120	=RC[-1]/RC[-3]	2		30010
